{
	"info": {
		"_postman_id": "93d018e7-b9d2-4635-964b-35bd9699d801",
		"name": "Simulador",
		"schema": "https://schema.getpostman.com/json/collection/v2.1.0/collection.json"
	},
	"item": [
		{
			"name": "Instituições",
			"request": {
				"method": "GET",
				"header": [],
				"url": {
					"raw": "http://localhost:8000/api/instituicoes",
					"protocol": "http",
					"host": [
						"localhost"
					],
					"port": "8000",
					"path": [
						"api",
						"instituicoes"
					]
				}
			},
			"response": []
		},
		{
			"name": "Convênios",
			"request": {
				"method": "GET",
				"header": [],
				"url": {
					"raw": "http://localhost:8000/api/convenios",
					"protocol": "http",
					"host": [
						"localhost"
					],
					"port": "8000",
					"path": [
						"api",
						"convenios"
					]
				}
			},
			"response": []
		},
		{
			"name": "Simular",
			"request": {
				"method": "POST",
				"header": [],
				"body": {
					"mode": "raw",
					"raw": "{\r\n    \"valor_emprestimo\": 39000,\r\n    \"parcela\": 48,\r\n    \"instituicoes\": [\r\n        {\r\n            \"chave\": \"PAN\",\r\n            \"valor\": \"Pan\"\r\n        }\r\n    ],\r\n    \"convenios\": [\r\n        {\r\n            \"chave\": \"INSS\",\r\n            \"valor\": \"INSS\"\r\n        }  \r\n    ]\r\n}",
					"options": {
						"raw": {
							"language": "json"
						}
					}
				},
				"url": {
					"raw": "http://localhost:8000/api/simular",
					"protocol": "http",
					"host": [
						"localhost"
					],
					"port": "8000",
					"path": [
						"api",
						"simular"
					]
				}
			},
			"response": []
		}
	],
	"protocolProfileBehavior": {}
}